…
``` r
file_kuwana_kajimachi <- dir_ls(exdir_kuwana_kajimachi)[[1L]]

# 筆（ポリゴン）
fude_polygon_kuwana_kajimachi <- read_mojxml(file_kuwana_kajimachi)
fude_polygon_kuwana_kajimachi
#> Simple feature collection with 2010 features and 14 fields
#> Geometry type: MULTIPOLYGON
#> Dimension:     XY
#> Bounding box:  xmin: -1260.868 ymin: -948.632 xmax: -131.689 ymax: 140.894
#> CRS:           NA
#> # A tibble: 2,010 × 15
#>    id         oaza_code chome_c…¹ koaza…² spare…³ oaza_…⁴ chome…⁵ chiban coord…⁶
#>  * <chr>      <chr>     <chr>     <chr>   <chr>   <chr>   <chr>   <chr>  <chr>  
#>  1 H000000001 021       000       0000    00      京町    <NA>    2      図上測…
#>  2 H000000002 021       000       0000    00      京町    <NA>    2-1    図上測…
#>  3 H000000003 021       000       0000    00      京町    <NA>    2-2    図上測…
#>  4 H000000004 021       000       0000    00      京町    <NA>    2-3    図上測…
#>  5 H000000005 021       000       0000    00      京町    <NA>    2-4    図上測…
#>  6 H000000006 021       000       0000    00      京町    <NA>    2-5    図上測…
#>  7 H000000007 021       000       0000    00      京町    <NA>    2-6    図上測…
#>  8 H000000008 021       000       0000    00      京町    <NA>    3      図上測…
#>  9 H000000009 021       000       0000    00      京町    <NA>    3-1    図上測…
#> 10 H000000010 021       000       0000    00      京町    <NA>    3-2    図上測…
#> # … with 2,000 more rows, 6 more variables: geometry <MULTIPOLYGON>,
#> #   version <chr>, map_name <chr>, city_code <chr>, city_name <chr>,
#> #   datum_type <chr>, and abbreviated variable names ¹​chome_code, ²​koaza_code,
#> #   ³​spare_code, ⁴​oaza_name, ⁵​chome_name, ⁶​coord_type
…
